{
  "/js/app.js": "public/js/app.js",
  "/css/app.css": "/css/app.css",
  "/css/bootstrap.css": "/css/bootstrap.css",
  "/css/adminlte-app.css": "/css/adminlte-app.css",
  "/css/toastr.css": "/css/toastr.css",
  "/js/app-landing.js": "/js/app-landing.js",
  "/css/all.css": "/public/css/all.css",
  "/css/all-landing.css": "/css/all-landing.css"
}